{
  "web":{
    "client_id":"436201427116-hoe9jpins4qpk1q13n3f787nt3b3mlhi.apps.googleusercontent.com",
    "project_id":"mutfak2",
    "auth_uri":"https://accounts.google.com/o/oauth2/auth",
    "token_uri":"https://oauth2.googleapis.com/token",
    "auth_provider_x509_cert_url":"https://www.googleapis.com/oauth2/v1/certs",
    "client_secret":"tmWFJsKFHn3RRNWol3y8Hyst",
    "redirect_uris":[
      "http://localhost:3100/googleCallback"]
  }
}